           MMM.           .MMM
           MMMMMMMMMMMMMMMMMMM
           MMMMMMMMMMMMMMMMMMM      ___________________________________
          MMMMMMMMMMMMMMMMMMMMM    |                                   |
         MMMMMMMMMMMMMMMMMMMMMMM   | Blue.							   |
        MMMMMMMMMMMMMMMMMMMMMMMM   |_   _______________________________|
        MMMM::- -:::::::- -::MMMM    |/
         MM~:~   ~:::::~   ~:~MM
    .. MMMMM::. .:::+:::. .::MMMMM ..
          .MM::::: ._. :::::MM.
             MMMM;:::::;MMMM
      -MM        MMMMMMM
      ^  M+     MMMMMMMMM
          MMMMMMM MM MM MM
               MM MM MM MM
               MM MM MM MM
            .~~MM~MM~MM~MM~~.
         ~~~~MM:~MM~~~MM~:MM~~~~
        ~~~~~~==~==~~~==~==~~~~~~
         ~~~~~~==~==~==~==~~~~~~
             :~==~==~==~==~~