          
                *       *
    *     ^   *         *
            _/ \_
           <-^*^->    *        *
            /.-.\       *
  *   *      /&\
            @.*.,@   *    *   *   
          (`-.*0..\             *
         /``--.__._)
        /-@.&&.*`.`=\     *
  *   .@-`O.__*&&.=%.\    *         * 
      /`''--.,__@,,..-\          /\ _____ /\
     /``--.,__.  __ …._\          X_______X
    /``--./,0..@__MERRY^\     ^   |       |
   (``--§--.@.,%%.,.XMAS!\    @\   =^ 0 ^=
  /``..;__.,,__, .._ _ .__)    @\___( % )
 /--==--=--==-==--==----==-\    @@@@    |
  ' " '' ""  "_' "_ "" "" "         |||||
            #####                   <'''>
    